%YAML 1.1
%TAG !u! tag:unity3d.com,2011:
--- !u!114 &11400000
MonoBehaviour:
  m_ObjectHideFlags: 0
  m_PrefabParentObject: {fileID: 0}
  m_PrefabInternal: {fileID: 0}
  m_GameObject: {fileID: 0}
  m_Enabled: 1
  m_EditorHideFlags: 0
  m_Script: {fileID: 11500000, guid: 3a215d395e4d041a295b0cdc445f42ac, type: 3}
  m_Name: GrassTile
  m_EditorClassIdentifier: 
  m_Sprite: {fileID: 21300000, guid: 130ad3e930c27ff4db751f5244a50549, type: 3}
  m_Color: {r: 1, g: 1, b: 1, a: 1}
  m_Transform:
    e00: 1
    e01: 0
    e02: 0
    e03: 0
    e10: 0
    e11: 1
    e12: 0
    e13: 0
    e20: 0
    e21: 0
    e22: 1
    e23: 0
    e30: 0
    e31: 0
    e32: 0
    e33: 1
  m_InstancedGameObject: {fileID: 0}
  m_Flags: 1
  m_ColliderType: 1
  grassSprites: []
  preview: {fileID: 21300000, guid: 130ad3e930c27ff4db751f5244a50549, type: 3}
  singleSprite: {fileID: 21300000, guid: 130ad3e930c27ff4db751f5244a50549, type: 3}
  topLeftSprite: {fileID: 21300000, guid: 9a2de7c39dade4b43b1d1939ae13da00, type: 3}
  topSprite: {fileID: 21300000, guid: e1e9b5abe513eab4aae19803c8458ce8, type: 3}
  topRightSprite: {fileID: 21300000, guid: 63ad18c6725ff2f49bf12bee1e398d8e, type: 3}
  leftSprite: {fileID: 21300000, guid: 7c9bdfbc98dd12c4484db30f4ce8da5e, type: 3}
  middleSprite: {fileID: 21300000, guid: 258ced7a9926407449da3faa6b1b7fb0, type: 3}
  rightSprite: {fileID: 21300000, guid: 6d5f2cc453009044da7e9d62b5ee9a2e, type: 3}
  bottomLeftSprite: {fileID: 21300000, guid: 7c0fa7ac858609e4aa67b0b978921bcb, type: 3}
  bottomSprite: {fileID: 21300000, guid: 250c329a389c22a49952d5881d5abeec, type: 3}
  bottomRightSprite: {fileID: 21300000, guid: f0bffdf7bd0cd5b468208bb049eb3980, type: 3}
  leftSingleRowSprite: {fileID: 21300000, guid: 76d22ce6aace37e4ca81a7831d516903,
    type: 3}
  middleSingleRowSprite: {fileID: 21300000, guid: 99f26329430965140934b29217a84be7,
    type: 3}
  rightSingleRowSprite: {fileID: 21300000, guid: fc1af950d66100d4c88fd5b3af1524af,
    type: 3}
  topSingleColumnSprite: {fileID: 21300000, guid: e1e9b5abe513eab4aae19803c8458ce8,
    type: 3}
  middleSingleColumnSprite: {fileID: 21300000, guid: 258ced7a9926407449da3faa6b1b7fb0,
    type: 3}
  bottomSingleColumnSprite: {fileID: 21300000, guid: 250c329a389c22a49952d5881d5abeec,
    type: 3}
